…
    ── Attaching packages ─────────────────────────────────────── tidyverse 1.3.2 ──
    ✔ ggplot2 3.4.0      ✔ purrr   0.3.5 
    ✔ tibble  3.1.8      ✔ dplyr   1.0.10
    ✔ tidyr   1.2.1      ✔ stringr 1.5.0 
    ✔ readr   2.1.3      ✔ forcats 0.5.2 
    ── Conflicts ────────────────────────────────────────── tidyverse_conflicts() ──
    ✖ dplyr::filter() masks stats::filter()
    ✖ dplyr::lag()    masks stats::lag()

``` r
data <- read_csv("data/data.csv",col_types = c("iid"))
data
```

    # A tibble: 100 × 3
         obs status biomarker
       <int>  <int>     <dbl>
     1     1      0     1.67 
     2     2      0    -0.876
     3     3      0    -1.39 
     4     4      0    -0.297
     5     5      1     0.190
     6     6      0     2.20 
     7     7      1    -0.121
     8     8      1     0.896
     9     9      1     0.153
    10    10      1     0.259
    # … with 90 more rows
…
    Warning in py_to_r.pandas.core.frame.DataFrame(object): index contains
    duplicated values: row names not set

    Warning in py_to_r.pandas.core.frame.DataFrame(object): index contains
    duplicated values: row names not set

    $`Model Learning`
    # A tibble: 200 × 5
       bootstrap model               test_roc_auc train_roc_auc validation_roc_auc
           <dbl> <chr>                      <dbl>         <dbl>              <dbl>
     1         0 Logistic Regression        1             0.529              0.611
     2         1 Logistic Regression        0.8           0.515              0.732
     3         2 Logistic Regression        1             0.543              0.4  
     4         3 Logistic Regression        0.875         0.520              0.727
     5         4 Logistic Regression        0.812         0.554              0.574
     6         5 Logistic Regression        1             0.550              0.536
     7         6 Logistic Regression        0.688         0.578              0.5  
     8         7 Logistic Regression        0.9           0.603              0.268
     9         8 Logistic Regression        0.812         0.555              0.554
    10         9 Logistic Regression        0.85          0.515              0.571
    # … with 190 more rows

    $`Feature Importance`
    # A tibble: 400 × 4
       bootstrap feature   importance model              
           <dbl> <chr>          <dbl> <chr>              
     1         0 biomarker      1.01  Logistic Regression
     2         0 Intercept     -0.600 Logistic Regression
     3         1 biomarker      0.509 Logistic Regression
     4         1 Intercept     -0.226 Logistic Regression
     5         2 biomarker      1.59  Logistic Regression
     6         2 Intercept     -0.938 Logistic Regression
     7         3 biomarker      0.826 Logistic Regression
     8         3 Intercept     -0.592 Logistic Regression
     9         4 biomarker      0.866 Logistic Regression
    10         4 Intercept     -0.533 Logistic Regression
    # … with 390 more rows

    $`Patient Predictions`
    # A tibble: 3,000 × 5
       bootstrap model               y_pred y_proba y_true
           <dbl> <chr>                <int>   <dbl>  <int>
     1         0 Logistic Regression      0   0.384      1
     2         0 Logistic Regression      1   0.601      0
     3         0 Logistic Regression      0   0.401      0
     4         0 Logistic Regression      1   0.512      1
     5         0 Logistic Regression      0   0.393      0
     6         0 Logistic Regression      0   0.466      1
     7         0 Logistic Regression      1   0.536      1
     8         0 Logistic Regression      0   0.354      0
     9         0 Logistic Regression      0   0.447      0
    10         0 Logistic Regression      0   0.398      1
    # … with 2,990 more rows

    $Performance
    # A tibble: 50 × 4
       model               metric  performance_bootstrap value
       <chr>               <chr>                   <dbl> <dbl>
     1 Logistic Regression roc_auc                     0 0.468
     2 Logistic Regression roc_auc                     1 0.468
     3 Logistic Regression roc_auc                     2 0.481
     4 Logistic Regression roc_auc                     3 0.482
     5 Logistic Regression roc_auc                     4 0.476
     6 Logistic Regression roc_auc                     5 0.470
     7 Logistic Regression roc_auc                     6 0.471
     8 Logistic Regression roc_auc                     7 0.460
     9 Logistic Regression roc_auc                     8 0.467
    10 Logistic Regression roc_auc                     9 0.465
    # … with 40 more rows
…
