mccv - Identifying Confounders and Mediators with MCCV
…
Show The Code

df <- tibble::tibble(
    X = reticulate::py$X,
    Y = reticulate::py$Y,
    Z = reticulate::py$Z
)
df[['Y']] <- factor(df$Y,levels=c(0,1))

df

# A tibble: 200 × 3
           X Y             Z
   <dbl[1d]> <fct> <dbl[1d]>
 1   -0.861  0       -0.0394
 2   -0.0157 0       -0.649 
 3    0.857  0        0.626 
 4    1.78   0        1.84  
 5   -1.33   0       -0.539 
 6    0.688  0       -1.40  
 7   -0.132  0        0.949 
 8    0.636  0       -0.702 
 9    1.43   0        0.606 
10   -0.276  0       -0.319 
# … with 190 more rows
…
Show The Code

df <- tibble::tibble(
    X = reticulate::py$X,
    Y = reticulate::py$Y,
    Z = reticulate::py$Z
)
df[['Y']] <- factor(df$Y,levels=c(0,1))

df

# A tibble: 200 × 3
           X Y             Z
   <dbl[1d]> <fct> <dbl[1d]>
 1    -0.566 1        -1.13 
 2     0.728 0         0.519
 3     0.456 0        -0.657
 4    -0.833 0        -0.908
 5    -0.199 1         0.225
 6    -0.241 0        -2.03 
 7     0.322 0        -0.649
 8    -2.55  0        -2.90 
 9     0.350 0        -1.17 
10     0.563 0        -0.117
# … with 190 more rows
…
